# HTTP server
server {
	listen 80;
	server_name f0f7.net www.f0f7.net;
	return 301 https://f0f7.net$request_uri;
}

# HTTPS server
server {
    listen 443 ssl spdy;
    server_name www.f0f7.net;

	ssl on;
    # ssl_certificate      /etc/letsencrypt/live/f0f7.net/fullchain.pem;
    # ssl_certificate_key  /etc/letsencrypt/live/f0f7.net/privkey.pem;

	include snippets/snakeoil.conf;
    return 301 https://f0f7.net$request_uri;
}

server {
	listen 443 ssl spdy;
	server_name f0f7.net;

	root /var/www/html/f0f7/www/;

	ssl on;
    # ssl_certificate      /etc/letsencrypt/live/f0f7.net/fullchain.pem;
    # ssl_certificate_key  /etc/letsencrypt/live/f0f7.net/privkey.pem;

	include snippets/snakeoil.conf;

	location = / {
		return 301 https://f0f7.net/fe/;
	}

	location ~ \.php$ {
		# NOTE: You should have "cgi.fix_pathinfo = 0;" in php.ini

		try_files $uri =404;
		include fastcgi_params;

		fastcgi_split_path_info ^(.+\.php)(/.+)$;
		fastcgi_pass unix:/var/run/php5-fpm.sock;
		fastcgi_index index.php;
		fastcgi_param  SCRIPT_FILENAME  $document_root$fastcgi_script_name;
	}

	location ~ ^/(be)/(.*)? {
		index  index.php;
		set $new_uri /$1/webroot/$2;
		try_files $new_uri $new_uri/ /$1/index.php?$args;
	}

	include common.conf;
}

